Place,Name,Sex,BirthDate,Age,State,Equipment,Division,BodyweightKg,WeightClassKg,Squat1Kg,Squat2Kg,Squat3Kg,Best3SquatKg,Bench1Kg,Bench2Kg,Bench3Kg,Best3BenchKg,Deadlift1Kg,Deadlift2Kg,Deadlift3Kg,Best3DeadliftKg,TotalKg,Event,Team
1,Shanna Youse,F,1977-12-19,44,IL,Wraps,FM1R,51.2,52,60,65,70,70,37.5,-42.5,42.5,42.5,102.5,107.5,115,115,227.5,SBD,
1,Shanna Youse,F,1977-12-19,44,IL,Wraps,FM1R-AD,51.2,52,60,65,70,70,37.5,-42.5,42.5,42.5,102.5,107.5,115,115,227.5,SBD,
1,Audrey LeMasters,F,1963-04-07,59,IL,Raw,FORE,66.4,67.5,42.5,50,-52.5,50,37.5,-42.5,42.5,42.5,72.5,87.5,92.5,92.5,185,SBD,
1,Amber Parkinson,F,1985-07-29,37,IL,Raw,FORE-AD,61.2,67.5,62.5,70,77.5,77.5,40,-47.5,-47.5,40,72.5,-87.5,87.5,87.5,205,SBD,
1,Tim Bray,M,1972-04-18,50,MO,Wraps,MM3R-AD,81,82.5,152.5,157.5,162.5,162.5,122.5,127.5,132.5,132.5,215,222.5,-227.5,222.5,517.5,SBD,
1,Patrick Thompson,M,,30,IL,Wraps,MOR,90,90,267.5,285,297.5,297.5,155,162.5,170,170,262.5,-277.5,277.5,277.5,745,SBD,Team Franklin
2,Kyle Baker,M,1995-05-05,27,IL,Wraps,MOR,88.4,90,227.5,235,-245,235,130,140,-150,140,220,232.5,-237.5,232.5,607.5,SBD,Team Franklin
1,Gerald Baker,M,1993-10-09,29,IL,Wraps,MOR,99.8,100,227.5,245,-260,245,115,120,130,130,-230,240,260,260,635,SBD,Team Franklin
1,Ernie Lilliebridge,M,1987-12-13,34,IL,Wraps,MOR,109,110,345,367.5,-390,367.5,185,195,-200,195,325,347.5,-365,347.5,910,SBD,Team Lilliebridge/Franklin
2,Daniel Sonnemaker,M,1985-08-02,37,IL,Wraps,MOR,107.5,110,285,305,-320,305,190,200,,200,250,,,250,755,SBD,Team Franklin
3,Austin Yeske,M,1993-12-14,28,IL,Wraps,MOR,109.2,110,250,260,-272.5,260,160,172.5,-182.5,172.5,250,-272.5,,250,682.5,SBD,
1,Percy Colvin,M,1979-06-16,43,IL,Wraps,MOR,115,125,305,340,-365,340,205,227.5,-235,227.5,272.5,290,,290,857.5,SBD,
1,Zack Miller,M,1989-05-20,33,IA,Wraps,MOR,156.2,140+,277.5,322.5,-367.5,322.5,230,252.5,260,260,272.5,325,365,365,947.5,SBD,
2,Isaac Bussen,M,1993-08-20,29,IL,Wraps,MOR,142.8,140+,-227.5,240,272.5,272.5,150,160,167.5,167.5,265,287.5,-292.5,287.5,727.5,SBD,Max Barbell
1,Dustin Frank,M,1996-02-06,26,IL,Raw,MORE,79.8,82.5,170,180,190,190,110,120,122.5,122.5,210,222.5,240,240,552.5,SBD,
1,Aaron Nance,M,1979-10-24,43,IL,Raw,MORE,97,100,-250,250,270,270,180,187.5,195,195,302.5,320,-327.5,320,785,SBD,
1,Michael Traficanti,M,1997-02-10,25,IL,Raw,MORE-AD,97.2,100,200,215,-220,215,150,165,175,175,192.5,210,220,220,610,SBD,
1,Austin Dohleman,M,2004-08-15,18,IL,Wraps,MT3R,98.4,100,192.5,-207.5,210,210,125,132.5,-137.5,132.5,235,247.5,260,260,602.5,SBD,
1,Henry Worrick,M,2006-06-07,16,IL,Raw,MT2RE,122,125,200,210,227.5,227.5,137.5,145,152.5,152.5,197.5,215,235,235,615,SBD,
1,J. Hampton,M,2006-09-30,16,IL,Raw,MT2RE-AD,74.8,75,177.5,-182.5,190,190,100,102.5,107.5,107.5,187.5,207.5,-232.5,207.5,505,SBD,
1,John MacBean,M,1961-03-04,61,IL,Raw,MM5R-AD,,125,,,,,175,180,-185,180,,,,,180,B,
